Get Census 2022 grid dataset — z22_data • z22
…
# Get data about the number of people born in a EU27 country
z22_data("birth_country", categories = 21, res = "1km")
#> # A tibble: 210,556 × 3
#>    cat_21       x       y
#>     <int>   <dbl>   <dbl>
#>  1      3 4337550 2689550
#>  2     NA 4341550 2689550
#>  3     NA 4341550 2690550
#>  4     NA 4340550 2691550
#>  5      3 4341550 2691550
#>  6     NA 4341550 2692550
#>  7      3 4344550 2692550
#>  8      3 4340550 2693550
#>  9     NA 4341550 2693550
#> 10     NA 4343550 2693550
#> # ℹ 210,546 more rows
…
