…
- 250 m: 6 million cells, 47 MB

- 1 km: 384 thousand cells, 3 MB

- 5 km: 16 thousand cells, 0.12 MB

- 10 km: 4 thousand cells, 0.03 MB

## Examples

``` r
# Get high-res grid as tibble
z22_grid("100m")
#> # A tibble: 38,171,748 × 2
#>          x       y
#>      <dbl>   <dbl>
#>  1 4334200 2684100
#>  2 4334300 2684100
#>  3 4334400 2684100
#>  4 4334500 2684100
#>  5 4334600 2684100
#>  6 4334200 2684200
#>  7 4334300 2684200
#>  8 4334400 2684200
#>  9 4334500 2684200
#> 10 4334600 2684200
#> # ℹ 38,171,738 more rows
…
