…
## Examples

``` r
# Get gridded population
pop <- z22_data("population", res = "10km", as = "raster")
terra::plot(pop$cat_0)


# Get data about the number of people born in a EU27 country
z22_data("birth_country", categories = 21, res = "1km")
#> # A tibble: 210,556 × 3
#>    cat_21       x       y
#>     <int>   <dbl>   <dbl>
#>  1      3 4338000 2690000
#>  2     NA 4342000 2690000
#>  3     NA 4342000 2691000
#>  4     NA 4341000 2692000
#>  5      3 4342000 2692000
#>  6     NA 4342000 2693000
#>  7      3 4345000 2693000
#>  8      3 4341000 2694000
#>  9     NA 4342000 2694000
#> 10     NA 4344000 2694000
#> # ℹ 210,546 more rows
```
