Get INSPIRE grid — z22_grid • z22
…
100 m: 38 million cells, 291 MB

250 m: 6 million cells, 47 MB

1 km: 384 thousand cells, 3 MB

5 km: 16 thousand cells, 0.12 MB

10 km: 4 thousand cells, 0.03 MB

    Examples

# Get high-res grid as tibble
z22_grid("100m")
#> # A tibble: 38,171,748 × 2
#>          x       y
#>      <int>   <int>
#>  1 4334150 2684050
#>  2 4334250 2684050
#>  3 4334350 2684050
#>  4 4334450 2684050
#>  5 4334550 2684050
#>  6 4334150 2684150
#>  7 4334250 2684150
#>  8 4334350 2684150
#>  9 4334450 2684150
#> 10 4334550 2684150
#> # ℹ 38,171,738 more rows
…
