…
# return all features available in the Census 2011
z22_features(year = 2011)
#> # A tibble: 48 × 8
#>    theme      feature            english   german z22   z11_100m z11_1km has_cat
#>    <chr>      <chr>              <chr>     <chr>  <lgl> <lgl>    <lgl>   <lgl>  
#>  1 Population population         Populati… Bevöl… TRUE  TRUE     TRUE    FALSE  
#>  2 Population foreigners         Share of… Auslä… TRUE  FALSE    TRUE    FALSE  
#>  3 Population birth_country      Country … Gebur… TRUE  TRUE     FALSE   TRUE   
#>  4 Population sex                Sex       Gesch… FALSE TRUE     FALSE   TRUE   
#>  5 Population women              Share of… Fraue… FALSE FALSE    TRUE    FALSE  
#>  6 Population religion           Religion  Relig… FALSE TRUE     FALSE   TRUE   
#>  7 Population citizenship        Citizens… Staat… TRUE  TRUE     FALSE   TRUE   
#>  8 Population citizenship_group  Citizens… Staat… TRUE  TRUE     FALSE   TRUE   
#>  9 Population citizenship_origin Citizens… Staat… FALSE TRUE     FALSE   TRUE   
#> 10 Population citizenship_total  Number o… Anzah… FALSE TRUE     FALSE   TRUE   
#> # ℹ 38 more rows
…
