Cast feature grid to a long table — z22_pivot_longer • z22
…
    Details

    Note that all columns starting with "cat_*" are automatically used
for pivoting.

    Examples

# get feature grid
age <- z22_data("age_short", res = "10km")

# pivot to a long table
z22_pivot_longer(age, feature = "age_short")
#> # A tibble: 19,110 × 4
#>    category value       x       y
#>    <fct>    <int>   <dbl>   <dbl>
#>  1 Under 18    NA 4335050 2685050
#>  2 Under 18    NA 4345050 2685050
#>  3 Under 18    53 4335050 2695050
#>  4 Under 18   810 4345050 2695050
#>  5 Under 18     3 4415050 2695050
#>  6 Under 18     5 4325050 2705050
#>  7 Under 18   486 4335050 2705050
#>  8 Under 18  1431 4345050 2705050
#>  9 Under 18   133 4355050 2705050
#> 10 Under 18   431 4395050 2705050
#> # ℹ 19,100 more rows
…
