Get started with z22 • z22
…
Data chunks are uniquely identified using features
and categories. When I talk about a feature, I
talk about an indicator aggregated to grid cells, for example, age
groups or the number of dwellings. When I talk about a
category, I talk about the discrete classifications of
features, e.g., ages 10 to 19, 20 to 29, 30 to 39, etc. You can retrieve
a list of all available features using:

z22_features()
#> # A tibble: 55 × 8
#>    theme      feature            english   german z22   z11_100m z11_1km has_cat
#>    <chr>      <chr>              <chr>     <chr>  <lgl> <lgl>    <lgl>   <lgl>  
#>  1 Population population         Populati… Bevöl… TRUE  TRUE     TRUE    FALSE  
#>  2 Population citizens           Number o… Deuts… TRUE  FALSE    FALSE   FALSE  
#>  3 Population foreigners         Share of… Auslä… TRUE  FALSE    TRUE    FALSE  
#>  4 Population foreigners_from_18 Share of… Auslä… TRUE  FALSE    FALSE   FALSE  
#>  5 Population birth_country      Country … Gebur… TRUE  TRUE     FALSE   TRUE   
#>  6 Population sex                Sex       Gesch… FALSE TRUE     FALSE   TRUE   
#>  7 Population women              Share of… Fraue… FALSE FALSE    TRUE    FALSE  
#>  8 Population religion           Religion  Relig… FALSE TRUE     FALSE   TRUE   
#>  9 Population citizenship        Citizens… Staat… TRUE  TRUE     FALSE   TRUE   
#> 10 Population citizenship_group  Citizens… Staat… TRUE  TRUE     FALSE   TRUE   
#> # ℹ 45 more rows
…
