Get started with z22 • z22
…
Data chunks are uniquely identified using features
and categories. When I talk about a feature, I
talk about an indicator aggregated to grid cells, for example, age
groups or the number of dwellings. When I talk about a
category, I talk about the discrete classifications of
features, e.g., ages 10 to 19, 20 to 29, 30 to 39, etc. You can retrieve
a list of all available features using:

z22_features()
#> # A tibble: 55 × 8
#>    theme      feature            english                                german                z22   z11_100m z11_1km has_cat
#>    <chr>      <chr>              <chr>                                  <chr>                 <lgl> <lgl>    <lgl>   <lgl>  
#>  1 Population population         Population                             Bevölkerung           TRUE  TRUE     TRUE    FALSE  
#>  2 Population citizens           Number of german citizens, 18 or older Deutsche Staatsangeh… TRUE  FALSE    FALSE   FALSE  
#>  3 Population foreigners         Share of foreigners                    Ausländeranteil       TRUE  FALSE    TRUE    FALSE  
#>  4 Population foreigners_from_18 Share of foreigners, 18 or older       Ausländeranteil ab 1… TRUE  FALSE    FALSE   FALSE  
#>  5 Population birth_country      Country of birth (groups)              Geburtsland (Gruppen) TRUE  TRUE     FALSE   TRUE   
#>  6 Population sex                Sex                                    Geschlecht            FALSE TRUE     FALSE   TRUE   
#>  7 Population women              Share of women                         Frauenanteil          FALSE FALSE    TRUE    FALSE  
#>  8 Population religion           Religion                               Religion              FALSE TRUE     FALSE   TRUE   
#>  9 Population citizenship        Citizenship                            Staatsangehörigkeit   TRUE  TRUE     FALSE   TRUE   
#> 10 Population citizenship_group  Citizenship (groups)                   Staatsangehörigkeit … TRUE  TRUE     FALSE   TRUE   
#> # ℹ 45 more rows
…
